%YAML 1.1
%TAG !u! tag:unity3d.com,2011:
--- !u!114 &11400000
MonoBehaviour:
  m_ObjectHideFlags: 0
  m_CorrespondingSourceObject: {fileID: 0}
  m_PrefabInstance: {fileID: 0}
  m_PrefabAsset: {fileID: 0}
  m_GameObject: {fileID: 0}
  m_Enabled: 1
  m_EditorHideFlags: 0
  m_Script: {fileID: 11500000, guid: 374c54207dd44fe08824e798cfd81796, type: 3}
  m_Name: BuffSetting
  m_EditorClassIdentifier: 
  BuffSettingInfo:
  - Sign: "\u73AF\u7ED5\u5149\u7403"
    Description: "\u73AF\u7ED5\u5149\u7403"
    UpgradeDescriptions:
    - "\u4E00\u4E2A\u73AF\u7ED5\u5149\u7403"
    - "\u4E24\u4E2A\u73AF\u7ED5\u5149\u7403"
    - "\u4E09\u4E2A\u73AF\u7ED5\u5149\u7403"
    UpgradeParams:
    - Sign: SurroundSpeed
      Param: 100
    Icon: {fileID: 10901, guid: 0000000000000000f000000000000000, type: 0}
    SubscriptIcon: {fileID: 0}
    BehaviourSign: Behaviour_Auto_SurroundingTheBallOfLight
    CanUpgrade: 1
    UpgradeLimit: 3
  - Sign: "\u6FC0\u5149"
    Description: "\u6FC0\u5149"
    UpgradeDescriptions:
    - "\u4E00\u4E2A\u6FC0\u5149"
    - "\u4E24\u4E2A\u6FC0\u5149"
    - "\u4E09\u4E2A\u6FC0\u5149"
    UpgradeParams:
    - Sign: AttackIntervalTime
      Param: 2
    - Sign: AttackDamage
      Param: 50
    Icon: {fileID: 10901, guid: 0000000000000000f000000000000000, type: 0}
    SubscriptIcon: {fileID: 0}
    BehaviourSign: Behaviour_Auto_Laser
    CanUpgrade: 1
    UpgradeLimit: 3
  - Sign: "\u5730\u9707"
    Description: "\u5730\u9707"
    UpgradeDescriptions:
    - "\u4E00\u4E2A\u5730\u9707"
    - "\u4E24\u4E2A\u5730\u9707"
    - "\u4E09\u4E2A\u5730\u9707"
    UpgradeParams: []
    Icon: {fileID: 10901, guid: 0000000000000000f000000000000000, type: 0}
    SubscriptIcon: {fileID: 0}
    BehaviourSign: Behaviour_Auto_Earthquake
    CanUpgrade: 1
    UpgradeLimit: 3
