%YAML 1.1
%TAG !u! tag:unity3d.com,2011:
--- !u!114 &11400000
MonoBehaviour:
  m_ObjectHideFlags: 0
  m_CorrespondingSourceObject: {fileID: 0}
  m_PrefabInstance: {fileID: 0}
  m_PrefabAsset: {fileID: 0}
  m_GameObject: {fileID: 0}
  m_Enabled: 1
  m_EditorHideFlags: 0
  m_Script: {fileID: 11500000, guid: d79b709fecf045eca501855bdbebe06d, type: 3}
  m_Name: RobotSetting
  m_EditorClassIdentifier: 
  RobotSettingInfo:
  - Sign: "\u65B0\u589E\u5341\u4E2A\u5C0F\u65B9\u5757"
    RobotSign: Obj_Robot_Soldier
    Icon: {fileID: 10907, guid: 0000000000000000f000000000000000, type: 0}
    Description: "\u65B0\u589E\u5341\u4E2A\u5C0F\u65B9\u5757"
    Attack: 10
    Num: 10
    MovementSpeed: 3
    MaxHealth: 15
    KnockbackSpeed: 5
    KnockbackDuraing: 0.5
    RobotDifficulty: 1
  - Sign: "\u65B0\u589E\u4E8C\u5341\u4E2A\u5C0F\u65B9\u5757"
    RobotSign: Obj_Robot_Soldier
    Icon: {fileID: 10907, guid: 0000000000000000f000000000000000, type: 0}
    Description: "\u65B0\u589E\u4E8C\u5341\u4E2A\u5C0F\u65B9\u5757"
    Attack: 10
    Num: 20
    MovementSpeed: 3
    MaxHealth: 15
    KnockbackSpeed: 5
    KnockbackDuraing: 0.5
    RobotDifficulty: 2
  - Sign: "\u65B0\u589E\u4E09\u5341\u4E2A\u5C0F\u65B9\u5757"
    RobotSign: Obj_Robot_Soldier
    Icon: {fileID: 10907, guid: 0000000000000000f000000000000000, type: 0}
    Description: "\u65B0\u589E\u4E09\u5341\u4E2A\u5C0F\u65B9\u5757"
    Attack: 10
    Num: 30
    MovementSpeed: 3
    MaxHealth: 15
    KnockbackSpeed: 5
    KnockbackDuraing: 0.5
    RobotDifficulty: 3
  - Sign: "\u65B0\u589E\u56DB\u5341\u4E2A\u5C0F\u65B9\u5757"
    RobotSign: Obj_Robot_Soldier
    Icon: {fileID: 10907, guid: 0000000000000000f000000000000000, type: 0}
    Description: "\u65B0\u589E\u56DB\u5341\u4E2A\u5C0F\u65B9\u5757"
    Attack: 10
    Num: 40
    MovementSpeed: 3
    MaxHealth: 15
    KnockbackSpeed: 5
    KnockbackDuraing: 0.5
    RobotDifficulty: 4
  - Sign: "\u65B0\u589E\u4E00\u4E2A\u5927\u65B9\u5757"
    RobotSign: Obj_Robot_SoldierB
    Icon: {fileID: 10907, guid: 0000000000000000f000000000000000, type: 0}
    Description: "\u65B0\u589E\u4E00\u4E2A\u5927\u65B9\u5757"
    Attack: 30
    Num: 1
    MovementSpeed: 2
    MaxHealth: 30
    KnockbackSpeed: 5
    KnockbackDuraing: 0.5
    RobotDifficulty: 1
  - Sign: "\u65B0\u589E\u4E24\u4E2A\u5927\u65B9\u5757"
    RobotSign: Obj_Robot_SoldierB
    Icon: {fileID: 10907, guid: 0000000000000000f000000000000000, type: 0}
    Description: "\u65B0\u589E\u4E24\u4E2A\u5927\u65B9\u5757"
    Attack: 30
    Num: 2
    MovementSpeed: 2
    MaxHealth: 30
    KnockbackSpeed: 5
    KnockbackDuraing: 0.5
    RobotDifficulty: 2
  - Sign: "\u65B0\u589E\u4E09\u4E2A\u5927\u65B9\u5757"
    RobotSign: Obj_Robot_SoldierB
    Icon: {fileID: 10907, guid: 0000000000000000f000000000000000, type: 0}
    Description: "\u65B0\u589E\u4E09\u4E2A\u5927\u65B9\u5757"
    Attack: 30
    Num: 3
    MovementSpeed: 2
    MaxHealth: 30
    KnockbackSpeed: 5
    KnockbackDuraing: 0.5
    RobotDifficulty: 3
  - Sign: "\u65B0\u589E\u56DB\u4E2A\u5927\u65B9\u5757"
    RobotSign: Obj_Robot_SoldierB
    Icon: {fileID: 10907, guid: 0000000000000000f000000000000000, type: 0}
    Description: "\u65B0\u589E\u56DB\u4E2A\u5927\u65B9\u5757"
    Attack: 30
    Num: 4
    MovementSpeed: 2
    MaxHealth: 30
    KnockbackSpeed: 5
    KnockbackDuraing: 0.5
    RobotDifficulty: 4
  - Sign: "\u65B0\u589E\u4E00\u4E2A\u589E\u6B96\u65B9\u5757"
    RobotSign: Obj_Robot_SoldierC
    Icon: {fileID: 10907, guid: 0000000000000000f000000000000000, type: 0}
    Description: "\u65B0\u589E\u4E00\u4E2A\u589E\u6B96\u65B9\u5757"
    Attack: 5
    Num: 1
    MovementSpeed: 2
    MaxHealth: 5
    KnockbackSpeed: 5
    KnockbackDuraing: 0.5
    RobotDifficulty: 1
  - Sign: "\u65B0\u589E\u4E24\u4E2A\u589E\u6B96\u65B9\u5757"
    RobotSign: Obj_Robot_SoldierC
    Icon: {fileID: 10907, guid: 0000000000000000f000000000000000, type: 0}
    Description: "\u65B0\u589E\u4E24\u4E2A\u589E\u6B96\u65B9\u5757"
    Attack: 5
    Num: 2
    MovementSpeed: 2
    MaxHealth: 5
    KnockbackSpeed: 5
    KnockbackDuraing: 0.5
    RobotDifficulty: 2
  - Sign: "\u65B0\u589E\u4E09\u4E2A\u589E\u6B96\u65B9\u5757"
    RobotSign: Obj_Robot_SoldierC
    Icon: {fileID: 10907, guid: 0000000000000000f000000000000000, type: 0}
    Description: "\u65B0\u589E\u4E09\u4E2A\u589E\u6B96\u65B9\u5757"
    Attack: 5
    Num: 3
    MovementSpeed: 2
    MaxHealth: 5
    KnockbackSpeed: 5
    KnockbackDuraing: 0.5
    RobotDifficulty: 3
  - Sign: "\u65B0\u589E\u56DB\u4E2A\u589E\u6B96\u65B9\u5757"
    RobotSign: Obj_Robot_SoldierC
    Icon: {fileID: 10907, guid: 0000000000000000f000000000000000, type: 0}
    Description: "\u65B0\u589E\u56DB\u4E2A\u589E\u6B96\u65B9\u5757"
    Attack: 5
    Num: 4
    MovementSpeed: 2
    MaxHealth: 5
    KnockbackSpeed: 5
    KnockbackDuraing: 0.5
    RobotDifficulty: 4
